…
#### Operador pipeline {-}

En R, cuando uno hace varias operaciones es difícil leer y entender el 
código: 


```r
library(estcomp)

summarise(group_by(filter(election_2012, !is.na(section_type)), region,
    section_type), n = n(), pri_pvem = sum(pri_pvem), 
    prd_pt_mc = sum(prd_pt_mc), pan = sum(pan))
#> # A tibble: 24 x 6
#> # Groups:   region [8]
#>    region      section_type     n pri_pvem prd_pt_mc     pan
#>    <chr>       <chr>        <int>    <int>     <int>   <int>
#>  1 centronorte M             2071   331221    143225  228112
#>  2 centronorte R             5049   651507    211524  447886
#>  3 centronorte U             8940  1229241    653540 1171415
#>  4 centrosur   M             1839   324327    277470  126264
#>  5 centrosur   R             2541   495288    223978  181755
#>  6 centrosur   U            27515  3698793   4765575 1936586
#>  7 este        M             3158   462510    370352  306124
#>  8 este        R             6768   905078    521793  654839
#>  9 este        U            11403  1373876   1602217 1179497
#> 10 noreste     M             1259   176191     77062  169285
#> # … with 14 more rows
```
…
Veamos como cambia el código del ejemplo:


```r
election_2012 %>% 
    filter(!is.na(section_type)) %>% 
    group_by(region, section_type) %>% 
    summarise(
        n = n(), 
        pri_pvem = sum(pri_pvem), 
        prd_pt_mc = sum(prd_pt_mc), 
        pan = sum(pan)
        ) 
#> # A tibble: 24 x 6
#> # Groups:   region [8]
#>    region      section_type     n pri_pvem prd_pt_mc     pan
#>    <chr>       <chr>        <int>    <int>     <int>   <int>
#>  1 centronorte M             2071   331221    143225  228112
#>  2 centronorte R             5049   651507    211524  447886
#>  3 centronorte U             8940  1229241    653540 1171415
#>  4 centrosur   M             1839   324327    277470  126264
#>  5 centrosur   R             2541   495288    223978  181755
#>  6 centrosur   U            27515  3698793   4765575 1936586
#>  7 este        M             3158   462510    370352  306124
#>  8 este        R             6768   905078    521793  654839
#>  9 este        U            11403  1373876   1602217 1179497
#> 10 noreste     M             1259   176191     77062  169285
#> # … with 14 more rows
```
…
### Los encabezados de las columanas son valores {-}

Usaremos ejemplos para entender los conceptos más facilmente. Comenzaremos
con una tabla de datos que contiene las mediciones de partículas suspendidas
PM2.5 de la red automática de monitoreo atmosférico 
([RAMA](http://www.aire.cdmx.gob.mx)) para los primeros meses del 2019.



```r
library(tidyverse)
library(estcomp)
pm25_2019
#> # A tibble: 5,088 x 26
#>    date        hour   AJM   AJU   BJU   CAM   CCA COY   FAR     GAM   HGM
#>    <date>     <dbl> <dbl> <dbl> <dbl> <dbl> <dbl> <lgl> <lgl> <dbl> <dbl>
#>  1 2019-01-01     1    19    35    62    90    66 NA    NA       NA    56
#>  2 2019-01-01     2    17    24    88   104    84 NA    NA       NA    61
#>  3 2019-01-01     3    14    20   107   140    95 NA    NA       NA    74
#>  4 2019-01-01     4     6    15   101   162    97 NA    NA       NA    90
#>  5 2019-01-01     5     4     8   121   133    88 NA    NA       NA    90
#>  6 2019-01-01     6     7     7    93   106    77 NA    NA       NA   106
#>  7 2019-01-01     7    12     8    84    98    51 NA    NA       NA   115
#>  8 2019-01-01     8    15     7   101    82    39 NA    NA       NA    90
#>  9 2019-01-01     9    24     3    89    54    26 NA    NA       NA    90
#> 10 2019-01-01    10    24    NA    88    76    26 NA    NA       NA    99
#> # … with 5,078 more rows, and 15 more variables: INN <dbl>, MER <dbl>,
#> #   MGH <dbl>, MON <dbl>, MPA <lgl>, NEZ <dbl>, PED <dbl>, SAC <lgl>,
#> #   SAG <dbl>, SFE <dbl>, SJA <lgl>, TLA <dbl>, UAX <dbl>, UIZ <dbl>,
#> #   XAL <dbl>
```
…
* data: `data.frame` que vamos a pivotear, alargar.  
* cols: columnas que vamos a pivotear (apilar), la 
notación para seleccionarlas es `tidyselect`, la misma que usamos con `select()`
en `dplyr`.
* names_to: nombre (`string`: en comillas "") de la nueva columna que almacenará
los nombres de las columnas en los datos.  
* values_to: nombre (`string`: en comillas "") de la nueva columna que 
almacenará los valores en los datos.


```r
pm25_2019_tidy <- pivot_longer(pm25_2019, cols = AJM:XAL, names_to = "station", 
  values_to = "measurement")
pm25_2019_tidy
#> # A tibble: 122,112 x 4
#>    date        hour station measurement
#>    <date>     <dbl> <chr>         <dbl>
#>  1 2019-01-01     1 AJM              19
#>  2 2019-01-01     1 AJU              35
#>  3 2019-01-01     1 BJU              62
#>  4 2019-01-01     1 CAM              90
#>  5 2019-01-01     1 CCA              66
#>  6 2019-01-01     1 COY              NA
#>  7 2019-01-01     1 FAR              NA
#>  8 2019-01-01     1 GAM              NA
#>  9 2019-01-01     1 HGM              56
#> 10 2019-01-01     1 INN              22
#> # … with 122,102 more rows
```
…
<img src="02-manipulacion_files/figure-html/unnamed-chunk-53-1.png" width="672" style="display: block; margin: auto;" />

Otro ejemplo, veamos los datos `df_edu`, ¿cuántas variables tenemos?


```r
df_edu
#> # A tibble: 7,371 x 16
#>    state_code municipio_code region state_name state_abbr municipio_name
#>    <chr>      <chr>          <chr>  <chr>      <chr>      <chr>         
#>  1 01         001            01001  Aguascali… AGS        Aguascalientes
#>  2 01         001            01001  Aguascali… AGS        Aguascalientes
#>  3 01         001            01001  Aguascali… AGS        Aguascalientes
#>  4 01         002            01002  Aguascali… AGS        Asientos      
#>  5 01         002            01002  Aguascali… AGS        Asientos      
#>  6 01         002            01002  Aguascali… AGS        Asientos      
#>  7 01         003            01003  Aguascali… AGS        Calvillo      
#>  8 01         003            01003  Aguascali… AGS        Calvillo      
#>  9 01         003            01003  Aguascali… AGS        Calvillo      
#> 10 01         004            01004  Aguascali… AGS        Cosío         
#> # … with 7,361 more rows, and 10 more variables: sex <chr>, pop_15 <dbl>,
#> #   no_school <dbl>, preschool <dbl>, elementary <dbl>, secondary <dbl>,
#> #   highschool <dbl>, higher_edu <dbl>, other <dbl>, schoolyrs <dbl>
```
…
- el nombre de la base de datos,  

- el nombre de la variable que deseamos separar en más de una,  

- la posición de donde deseamos "cortar" (hay más opciones para especificar 
como separar, ver `?separate`). El default es separar valores en todos los 
lugares que encuentre un caracter que no es alfanumérico (espacio, guión,...).


```r
enlacep_tidy <- separate(data = enlacep_long, col = AREA_GRADO, 
    into = c("AREA", "GRADO"), sep = 9)
enlacep_tidy
#> # A tibble: 12,000 x 13
#>    CVE_ENT NOM_ENT CCT   TURNO ESCUELA TIPO  CVE_MUN NOM_MUN CVE_LOC
#>    <chr>   <chr>   <chr> <chr> <chr>   <chr> <chr>   <chr>   <chr>  
#>  1 04      CAMPEC… 04DP… MATU… DESIDE… INDê… 001     CALKINI 0001   
#>  2 04      CAMPEC… 04DP… MATU… DESIDE… INDê… 001     CALKINI 0001   
#>  3 04      CAMPEC… 04DP… MATU… DESIDE… INDê… 001     CALKINI 0001   
#>  4 04      CAMPEC… 04DP… MATU… DESIDE… INDê… 001     CALKINI 0001   
#>  5 04      CAMPEC… 04DP… MATU… DESIDE… INDê… 001     CALKINI 0001   
#>  6 04      CAMPEC… 04DP… MATU… DESIDE… INDê… 001     CALKINI 0001   
#>  7 04      CAMPEC… 04DP… MATU… DESIDE… INDê… 001     CALKINI 0001   
#>  8 04      CAMPEC… 04DP… MATU… DESIDE… INDê… 001     CALKINI 0001   
#>  9 04      CAMPEC… 04DP… MATU… DESIDE… INDê… 001     CALKINI 0001   
#> 10 04      CAMPEC… 04DP… MATU… DESIDE… INDê… 001     CALKINI 0001   
#> # … with 11,990 more rows, and 4 more variables: NOM_LOC <chr>,
#> #   AREA <chr>, GRADO <chr>, PUNTAJE <dbl>
…
### Variables almacenadas en filas y columnas {-}

El problema más difícil es cuando las variables están tanto en filas como en 
columnas, veamos una base de datos de fertilidad. ¿Cuáles son las 
variables en estos datos?


```r
data("df_fertility")
df_fertility
#> # A tibble: 306 x 11
#>    state size_localidad est   age_15_19 age_20_24 age_25_29 age_30_34
#>    <chr> <chr>          <chr>     <dbl>     <dbl>     <dbl>     <dbl>
#>  1 01 A… Menos de 2 50… Valor     74.2     175.      175.      102.  
#>  2 01 A… Menos de 2 50… Erro…      6.71     11.0       9.35      8.05
#>  3 01 A… 2 500-14 999 … Valor     82.5     171.      140.      103.  
#>  4 01 A… 2 500-14 999 … Erro…      9.79     12.5      10.4       8.76
#>  5 01 A… 15 000-49 999… Valor     72.6     146.      147.       99.0 
#>  6 01 A… 15 000-49 999… Erro…      7.07     10.8      10.5       8.11
#>  7 01 A… 100 000 y más… Valor     66.3     120.      102.       84.2 
#>  8 01 A… 100 000 y más… Erro…      7.57      8.66      8.98      8.59
#>  9 02 B… Menos de 2 50… Valor     89.6     158.      117.       86.0 
#> 10 02 B… Menos de 2 50… Erro…     15.8      17.2      13.2      12.3 
#> # … with 296 more rows, and 4 more variables: age_35_39 <dbl>,
#> #   age_40_44 <dbl>, age_45_49 <dbl>, global <dbl>
```

Estos datos tienen variables en columnas individuales (state, size_localidad), 
en múltiples columnas (grupo de edad, age_15_19,..) y en filas (Valor y 
Error estándar). 

Comencemos por apilar las columnas.




```r
fertility_long <- pivot_longer(df_fertility, cols = age_15_19:global, 
  names_to = "age_bracket", values_to = "value", names_prefix = "age_")
fertility_long
#> # A tibble: 2,448 x 5
#>    state            size_localidad          est          age_bracket  value
#>    <chr>            <chr>                   <chr>        <chr>        <dbl>
#>  1 01 Aguascalient… Menos de 2 500 habitan… Valor        15_19        74.2 
#>  2 01 Aguascalient… Menos de 2 500 habitan… Valor        20_24       175.  
#>  3 01 Aguascalient… Menos de 2 500 habitan… Valor        25_29       175.  
#>  4 01 Aguascalient… Menos de 2 500 habitan… Valor        30_34       102.  
#>  5 01 Aguascalient… Menos de 2 500 habitan… Valor        35_39        59.0 
#>  6 01 Aguascalient… Menos de 2 500 habitan… Valor        40_44        23.0 
#>  7 01 Aguascalient… Menos de 2 500 habitan… Valor        45_49         4.49
#>  8 01 Aguascalient… Menos de 2 500 habitan… Valor        global        3.06
#>  9 01 Aguascalient… Menos de 2 500 habitan… Error están… 15_19         6.71
#> 10 01 Aguascalient… Menos de 2 500 habitan… Error están… 20_24        11.0 
#> # … with 2,438 more rows
```

Podemos crear algunas variables adicionales.


```r
fertility_vars <- fertility_long %>% 
    mutate(
        state_code = str_sub(state, 1, 2), 
        state_name = str_sub(state, 4)
        ) %>%
    select(-state)
fertility_vars
#> # A tibble: 2,448 x 6
#>    size_localidad       est       age_bracket  value state_code state_name 
#>    <chr>                <chr>     <chr>        <dbl> <chr>      <chr>      
#>  1 Menos de 2 500 habi… Valor     15_19        74.2  01         Aguascalie…
#>  2 Menos de 2 500 habi… Valor     20_24       175.   01         Aguascalie…
#>  3 Menos de 2 500 habi… Valor     25_29       175.   01         Aguascalie…
#>  4 Menos de 2 500 habi… Valor     30_34       102.   01         Aguascalie…
#>  5 Menos de 2 500 habi… Valor     35_39        59.0  01         Aguascalie…
#>  6 Menos de 2 500 habi… Valor     40_44        23.0  01         Aguascalie…
#>  7 Menos de 2 500 habi… Valor     45_49         4.49 01         Aguascalie…
#>  8 Menos de 2 500 habi… Valor     global        3.06 01         Aguascalie…
#>  9 Menos de 2 500 habi… Error es… 15_19         6.71 01         Aguascalie…
#> 10 Menos de 2 500 habi… Error es… 20_24        11.0  01         Aguascalie…
#> # … with 2,438 more rows
```
…
```r
library(readxl)
rama <- map_df(paths, read_excel, .id = "FILENAME")

# eliminamos la basura del id
rama <- rama %>%
  mutate(PARAMETRO = str_remove(FILENAME, "2019") %>% str_remove(".xls")) %>%
  select(PARAMETRO, FECHA:AJU)
# y apilamos para tener una columna por estación
rama_tidy <- rama %>%
    gather(estacion, valor, ACO:AJU) %>% 
    mutate(valor = ifelse(-99, NA, valor))
rama_tidy
#> # A tibble: 1,648,512 x 5
#>    PARAMETRO FECHA                HORA estacion valor
#>    <chr>     <dttm>              <dbl> <chr>    <lgl>
#>  1 CO        2019-01-01 00:00:00     1 ACO      NA   
#>  2 CO        2019-01-01 00:00:00     2 ACO      NA   
#>  3 CO        2019-01-01 00:00:00     3 ACO      NA   
#>  4 CO        2019-01-01 00:00:00     4 ACO      NA   
#>  5 CO        2019-01-01 00:00:00     5 ACO      NA   
#>  6 CO        2019-01-01 00:00:00     6 ACO      NA   
#>  7 CO        2019-01-01 00:00:00     7 ACO      NA   
#>  8 CO        2019-01-01 00:00:00     8 ACO      NA   
#>  9 CO        2019-01-01 00:00:00     9 ACO      NA   
#> 10 CO        2019-01-01 00:00:00    10 ACO      NA   
#> # … with 1,648,502 more rows
```
…
