…
Ahora, el **bootstrap** es un método de simulación basado en datos para 
inferencia estadística. La idea detrás es que si una muestra es una aproximación 
de la población que la generó, entoces podemos hacer muestreos de la muestra 
para calcular una estadística de interés y medir la exactitud en la misma.

En este caso tenemos los resultados del experimento en la variable *trial*.


```r
trial <- tibble(patient = 1:22071, 
    group = ifelse(patient <= 11037, "aspirin", "control"), 
    heart_attack = c(rep(TRUE, 104), rep(FALSE, 10933), rep(TRUE, 189), 
      rep(FALSE, 10845)))
trial
#> # A tibble: 22,071 x 3
#>    patient group   heart_attack
#>      <int> <chr>   <lgl>       
#>  1       1 aspirin TRUE        
#>  2       2 aspirin TRUE        
#>  3       3 aspirin TRUE        
#>  4       4 aspirin TRUE        
#>  5       5 aspirin TRUE        
#>  6       6 aspirin TRUE        
#>  7       7 aspirin TRUE        
#>  8       8 aspirin TRUE        
#>  9       9 aspirin TRUE        
#> 10      10 aspirin TRUE        
#> # … with 22,061 more rows
```
…
