…
    x <- rep(NA, n)
    u <- rep(NA, n)
    x[1] <- semilla
    u[1] <- x[1] / (2 ^ 31 - 1) # transformamos al (0, 1)
    for (i in 2:n) {
        x[i] <- (7 ^ 5 * x[i - 1]) %% (2 ^ 31 - 1)
        u[i] <- x[i] / (2 ^ 31 - 1)
    }
    u
}
u_rand <- sucesion(n = 150000)
sucesiones <- map_df(1:12, ~tibble(serie = ., sim = sucesion(), 
    ind = 1:length(sim)))
sucesiones
#> # A tibble: 18,000 x 3
#>    serie    sim   ind
#>    <int>  <dbl> <int>
#>  1     1 0.190      1
#>  2     1 0.427      2
#>  3     1 0.863      3
#>  4     1 0.869      4
#>  5     1 0.151      5
#>  6     1 0.751      6
#>  7     1 0.993      7
#>  8     1 0.0761     8
#>  9     1 0.219      9
#> 10     1 0.0141    10
#> # … with 17,990 more rows
```
…
