5. Bootstrap conteo | Estadística Computacional
…
En este ejercicio (similar al conteo rápido de 2006):

Se seleccionó una muestra de \(7,200\) casillas

La muestra se repartió a lo largo de 300 estratos.

La tabla strata_sample_2006 contiene en la columna \(N\) el número total de
casillas en el estrato y en \(n\) el número de casillas que se seleccionaron en la
muestra, para cada estrato:

library(estcomp)
strata_sample_2006
#> # A tibble: 300 x 3
#>    stratum     n     N
#>      <dbl> <int> <int>
#>  1       1    20   369
#>  2       2    23   420
#>  3       3    24   440
#>  4       4    31   570
#>  5       5    29   528
#>  6       6    37   664
#>  7       7    26   474
#>  8       8    21   373
#>  9       9    25   457
#> 10      10    24   430
#> # … with 290 more rows

La tabla sample_2006 en el paquete estcomp (vuelve a instalar de ser
necesario) contiene para cada casilla:

el estrato al que pertenece: stratum

el número de votos que recibió cada partido/coalición: pan, pri_pvem,
panal, prd_pt_convergencia, psd y la columna otros indica el
número de votos nulos o por candidatos no registrados.

el total de votos registrado en la casilla: total.

sample_2006
#> # A tibble: 7,200 x 11
#>    polling_id stratum edo_id rural pri_pvem   pan panal prd_pt_conv   psd
#>         <int>   <dbl>  <int> <dbl>    <int> <int> <int>       <int> <int>
#>  1      74593     106     16     1       47    40     0          40     0
#>  2     109927     194     27     0      131    10     0         147     1
#>  3     112039     199     28     0       51    74     2          57     2
#>  4      86392     141     20     1      145    64     2         139     1
#>  5     101306     176     24     0       51   160     0          64    14
#>  6      86044     140     20     1      150    20     0         166     1
#>  7      56057      57     15     1      117   119     2          82     0
#>  8      84186     128     19     0      118   205     8          73     9
#>  9      27778     283      9     0       26    65     5         249     7
#> 10      29892     289      9     0       27    32     0         338    14
#> # … with 7,190 more rows, and 2 more variables: otros <int>, total <int>
…
