3.2 Datos limpios | Estadística Computacional
…
Otro ejemplo, veamos los datos df_edu, ¿cuántas variables tenemos?

df_edu
#> # A tibble: 7,371 x 16
#>    state_code municipio_code region state_name state_abbr municipio_name
#>    <chr>      <chr>          <chr>  <chr>      <chr>      <chr>         
#>  1 01         001            01001  Aguascali… AGS        Aguascalientes
#>  2 01         001            01001  Aguascali… AGS        Aguascalientes
#>  3 01         001            01001  Aguascali… AGS        Aguascalientes
#>  4 01         002            01002  Aguascali… AGS        Asientos      
#>  5 01         002            01002  Aguascali… AGS        Asientos      
#>  6 01         002            01002  Aguascali… AGS        Asientos      
#>  7 01         003            01003  Aguascali… AGS        Calvillo      
#>  8 01         003            01003  Aguascali… AGS        Calvillo      
#>  9 01         003            01003  Aguascali… AGS        Calvillo      
#> 10 01         004            01004  Aguascali… AGS        Cosío         
#> # … with 7,361 more rows, and 10 more variables: sex <chr>, pop_15 <dbl>,
#> #   no_school <dbl>, preschool <dbl>, elementary <dbl>, secondary <dbl>,
#> #   highschool <dbl>, higher_edu <dbl>, other <dbl>, schoolyrs <dbl>
…
Ahora separaremos las variables materia y grado de la columna materia_grado,
para ello debemos pasar a la función separate(), esta recibe como parámetros:

el nombre de la base de datos,

el nombre de la variable que deseamos separar en más de una,

la posición de donde deseamos “cortar” (hay más opciones para especificar
como separar, ver ?separate). El default es separar valores en todos los
lugares que encuentre un caracter que no es alfanumérico (espacio, guión,…).

enlacep_tidy <- separate(data = enlacep_long, col = AREA_GRADO, 
    into = c("AREA", "GRADO"), sep = 9)
enlacep_tidy
#> # A tibble: 11,298 x 13
#>    CVE_ENT NOM_ENT CCT   TURNO ESCUELA TIPO  CVE_MUN NOM_MUN CVE_LOC
#>    <chr>   <chr>   <chr> <chr> <chr>   <chr> <chr>   <chr>   <chr>  
#>  1 15      MEXICO  15PP… MATU… COLEGI… PART… 099     TEXCOCO 0001   
#>  2 06      COLIMA  06DP… MATU… FEDERI… GENE… 002     COLIMA  0001   
#>  3 31      YUCATAN 31DP… MATU… GUADAL… GENE… 050     MERIDA  0001   
#>  4 30      VERACR… 30KP… MATU… PLAYA … CONA… 178     TLACOT… 0137   
#>  5 07      CHIAPAS 07KP… MATU… JABALT… CONA… 078     SAN CR… 0176   
#>  6 07      CHIAPAS 07DP… MATU… "NI\u0… INDê… 031     CHILON  0558   
#>  7 22      QUERET… 22DP… MATU… MARGAR… GENE… 018     TOLIMAN 0043   
#>  8 11      GUANAJ… 11EP… MATU… JUAN D… GENE… 014     DOLORE… 0124   
#>  9 22      QUERET… 22DP… MATU… CUAUHT… GENE… 012     PEDRO … 0028   
#> 10 14      JALISCO 14DP… MATU… ESCUEL… GENE… 055     MAGDAL… 0001   
#> # … with 11,288 more rows, and 4 more variables: NOM_LOC <chr>,
#> #   AREA <chr>, GRADO <chr>, PUNTAJE <dbl>
…
Variables almacenadas en filas y columnas

El problema más difícil es cuando las variables están tanto en filas como en
columnas, veamos una base de datos de fertilidad. ¿Cuáles son las
variables en estos datos?

data("df_fertility")
df_fertility
#> # A tibble: 306 x 11
#>    state size_localidad est   age_15_19 age_20_24 age_25_29 age_30_34
#>    <chr> <chr>          <chr>     <dbl>     <dbl>     <dbl>     <dbl>
#>  1 01 A… Menos de 2 50… Valor     74.2     175.      175.      102.  
#>  2 01 A… Menos de 2 50… Erro…      6.71     11.0       9.35      8.05
#>  3 01 A… 2 500-14 999 … Valor     82.5     171.      140.      103.  
#>  4 01 A… 2 500-14 999 … Erro…      9.79     12.5      10.4       8.76
#>  5 01 A… 15 000-49 999… Valor     72.6     146.      147.       99.0 
#>  6 01 A… 15 000-49 999… Erro…      7.07     10.8      10.5       8.11
#>  7 01 A… 100 000 y más… Valor     66.3     120.      102.       84.2 
#>  8 01 A… 100 000 y más… Erro…      7.57      8.66      8.98      8.59
#>  9 02 B… Menos de 2 50… Valor     89.6     158.      117.       86.0 
#> 10 02 B… Menos de 2 50… Erro…     15.8      17.2      13.2      12.3 
#> # … with 296 more rows, and 4 more variables: age_35_39 <dbl>,
#> #   age_40_44 <dbl>, age_45_49 <dbl>, global <dbl>

Estos datos tienen variables en columnas individuales (state, size_localidad),
en múltiples columnas (grupo de edad, age_15_19,..) y en filas (Valor y
Error estándar).

Comencemos por apilar las columnas.

fertility_long <- gather(df_fertility, age_bracket, value, age_15_19:global, 
    na.rm = TRUE)
fertility_long
#> # A tibble: 2,448 x 5
#>    state             size_localidad          est          age_bracket value
#>    <chr>             <chr>                   <chr>        <chr>       <dbl>
#>  1 01 Aguascalientes Menos de 2 500 habitan… Valor        age_15_19   74.2 
#>  2 01 Aguascalientes Menos de 2 500 habitan… Error están… age_15_19    6.71
#>  3 01 Aguascalientes 2 500-14 999 habitantes Valor        age_15_19   82.5 
#>  4 01 Aguascalientes 2 500-14 999 habitantes Error están… age_15_19    9.79
#>  5 01 Aguascalientes 15 000-49 999 habitant… Valor        age_15_19   72.6 
#>  6 01 Aguascalientes 15 000-49 999 habitant… Error están… age_15_19    7.07
#>  7 01 Aguascalientes 100 000 y más habitant… Valor        age_15_19   66.3 
#>  8 01 Aguascalientes 100 000 y más habitant… Error están… age_15_19    7.57
#>  9 02 Baja Californ… Menos de 2 500 habitan… Valor        age_15_19   89.6 
#> 10 02 Baja Californ… Menos de 2 500 habitan… Error están… age_15_19   15.8 
#> # … with 2,438 more rows

Podemos crear algunas variables adicionales.

fertility_vars <- fertility_long %>% 
    mutate(
        state_code = str_sub(state, 1, 2), 
        state_name = str_sub(state, 4)
        ) %>%
    select(-state)
fertility_vars
#> # A tibble: 2,448 x 6
#>    size_localidad       est       age_bracket value state_code state_name  
#>    <chr>                <chr>     <chr>       <dbl> <chr>      <chr>       
#>  1 Menos de 2 500 habi… Valor     age_15_19   74.2  01         Aguascalien…
#>  2 Menos de 2 500 habi… Error es… age_15_19    6.71 01         Aguascalien…
#>  3 2 500-14 999 habita… Valor     age_15_19   82.5  01         Aguascalien…
#>  4 2 500-14 999 habita… Error es… age_15_19    9.79 01         Aguascalien…
#>  5 15 000-49 999 habit… Valor     age_15_19   72.6  01         Aguascalien…
#>  6 15 000-49 999 habit… Error es… age_15_19    7.07 01         Aguascalien…
#>  7 100 000 y más habit… Valor     age_15_19   66.3  01         Aguascalien…
#>  8 100 000 y más habit… Error es… age_15_19    7.57 01         Aguascalien…
#>  9 Menos de 2 500 habi… Valor     age_15_19   89.6  02         Baja Califo…
#> 10 Menos de 2 500 habi… Error es… age_15_19   15.8  02         Baja Califo…
#> # … with 2,438 more rows
…
Mas de un tipo de observación en una misma tabla

Esta es quizá el principio menos importante de datos limpios y su conveniencia
dependerá de la situación, pero vale la pena conocerlo.

En ocasiones las bases de datos involucran valores en diferentes niveles, en
diferentes tipos de unidad observacional. En la limpieza de datos, cada unidad
observacional debe estar almacenada en su propia tabla (esto esta ligado a
normalización de una base de datos), es importante para evitar inconsistencias
en los datos.

¿Cuáles son las unidades observacionales de los datos df_mxmunicipio?

df_mxmunicipio
#> # A tibble: 2,457 x 18
#>    state_code municipio_code region state_name state_name_offi… state_abbr
#>    <chr>      <chr>          <chr>  <chr>      <chr>            <chr>     
#>  1 01         001            01001  Aguascali… Aguascalientes   AGS       
#>  2 01         002            01002  Aguascali… Aguascalientes   AGS       
#>  3 01         003            01003  Aguascali… Aguascalientes   AGS       
#>  4 01         004            01004  Aguascali… Aguascalientes   AGS       
#>  5 01         005            01005  Aguascali… Aguascalientes   AGS       
#>  6 01         006            01006  Aguascali… Aguascalientes   AGS       
#>  7 01         007            01007  Aguascali… Aguascalientes   AGS       
#>  8 01         008            01008  Aguascali… Aguascalientes   AGS       
#>  9 01         009            01009  Aguascali… Aguascalientes   AGS       
#> 10 01         010            01010  Aguascali… Aguascalientes   AGS       
#> # … with 2,447 more rows, and 12 more variables:
#> #   state_abbr_official <chr>, municipio_name <chr>, pop <int>,
#> #   pop_male <int>, pop_female <int>, afromexican <dbl>,
#> #   part_afromexican <dbl>, indigenous <dbl>, part_indigenous <dbl>,
#> #   metro_area <chr>, long <dbl>, lat <dbl>
…
