3.1 Transformación de datos | Estadística Computacional
…
by_metro_area <- group_by(df_mxmunicipio, metro_area)
no_miss <- filter(by_metro_area, !is.na(metro_area))
pop_metro_area <- summarise(no_miss, state = first(state_abbr), 
    n_municipios = n(), pop_total = sum(pop))

Operador pipeline

En R cuando uno hace varias operaciones es difícil leer y entender el código:

library(estcomp)

summarise(group_by(filter(election_2012, !is.na(section_type)), region,
    section_type), n = n(), pri_pvem = sum(pri_pvem), 
    prd_pt_mc = sum(prd_pt_mc), pan = sum(pan))
#> # A tibble: 24 x 6
#> # Groups:   region [8]
#>    region      section_type     n pri_pvem prd_pt_mc     pan
#>    <chr>       <chr>        <int>    <int>     <int>   <int>
#>  1 centronorte M             2071   331221    143225  228112
#>  2 centronorte R             5049   651507    211524  447886
#>  3 centronorte U             8940  1229241    653540 1171415
#>  4 centrosur   M             1839   324327    277470  126264
#>  5 centrosur   R             2541   495288    223978  181755
#>  6 centrosur   U            27515  3698793   4765575 1936586
#>  7 este        M             3158   462510    370352  306124
#>  8 este        R             6768   905078    521793  654839
#>  9 este        U            11403  1373876   1602217 1179497
#> 10 noreste     M             1259   176191     77062  169285
#> # … with 14 more rows
…
Veamos como cambia el código anterior:

election_2012 %>% 
    filter(!is.na(section_type)) %>% 
    group_by(region, section_type) %>% 
    summarise(
        n = n(), 
        pri_pvem = sum(pri_pvem), 
        prd_pt_mc = sum(prd_pt_mc), 
        pan = sum(pan)
        ) 
#> # A tibble: 24 x 6
#> # Groups:   region [8]
#>    region      section_type     n pri_pvem prd_pt_mc     pan
#>    <chr>       <chr>        <int>    <int>     <int>   <int>
#>  1 centronorte M             2071   331221    143225  228112
#>  2 centronorte R             5049   651507    211524  447886
#>  3 centronorte U             8940  1229241    653540 1171415
#>  4 centrosur   M             1839   324327    277470  126264
#>  5 centrosur   R             2541   495288    223978  181755
#>  6 centrosur   U            27515  3698793   4765575 1936586
#>  7 este        M             3158   462510    370352  306124
#>  8 este        R             6768   905078    521793  654839
#>  9 este        U            11403  1373876   1602217 1179497
#> 10 noreste     M             1259   176191     77062  169285
#> # … with 14 more rows
…
